Exploration & Clustering of Crime in Louisville
…
Remove zip_code label column to prepare matrix for K-Means

K-Means must have numerical data only

zip_crime_tbl <- lville_crime_grouped_tbl %>%
    select(zip_code, crime_type, prop_of_total) %>%
    pivot_wider(names_from = crime_type, values_from = prop_of_total, values_fill = 0)

zip_crime_mtx <- zip_crime_tbl %>% 
                     select(-zip_code) 
                     
print(zip_crime_mtx)

## # A tibble: 37 x 16
##    ASSAULT BURGLARY  FRAUD `MOTOR VEHICLE THEFT` OTHER `THEFT/LARCENY`
##      <dbl>    <dbl>  <dbl>                 <dbl> <dbl>           <dbl>
##  1   0.372   0.116  0.0465                0.0465 0.209          0.163 
##  2   0.177   0      0.0426                0      0.383          0.0142
##  3   0.206   0.0766 0.0622                0.0766 0.124          0.177 
##  4   0.262   0.0626 0.0597                0.0713 0.157          0.144 
##  5   0.278   0      0                     0.111  0.222          0.222 
##  6   0.240   0.0393 0.0262                0.0530 0.189          0.172 
##  7   0.286   0.0618 0.0285                0.0507 0.161          0.115 
##  8   0.174   0.0697 0.0348                0.0815 0.110          0.170 
##  9   0.152   0.0545 0.0685                0.0726 0.112          0.213 
## 10   0.167   0.0597 0.0451                0.0733 0.162          0.175 
## # i 27 more rows
## # i 10 more variables: `VEHICLE BREAK-IN/THEFT` <dbl>,
## #   `DISTURBING THE PEACE` <dbl>, HOMICIDE <dbl>, `SEX CRIMES` <dbl>,
## #   VANDALISM <dbl>, ARSON <dbl>, `DRUGS/ALCOHOL VIOLATIONS` <dbl>,
## #   ROBBERY <dbl>, WEAPONS <dbl>, DUI <dbl>
…
